Hierarchical Models - BDA Chapter 5
…
Observe number of rats in each experiment and number that develop a tumor.

Goal is to estimate the incidence of tumors in rats from 71 experiments.

Could be any binary outcome, e.g. success/failure, yes/no, etc.

library(tidyverse)
rats_url <- "http://www.stat.columbia.edu/~gelman/book/data/rats.asc"
rats <- read.table(rats_url, header = TRUE, skip = 2) |> 
  as_tibble() 

rats

# A tibble: 71 × 2
       y     N
   <int> <int>
 1     0    20
 2     0    20
 3     0    20
 4     0    20
 5     0    20
 6     0    20
 7     0    20
 8     0    19
 9     0    19
10     0    19
# ℹ 61 more rows
…
